<svg xmlns="http://www.w3.org/2000/svg" width="255" height="255" viewBox="0 0 255 255">
    <g fill="none" fill-rule="evenodd">
        <path fill="#FFF" d="M17.753 237.181h220.339V21.753H17.753z"/>
        <path fill="#231F1F" d="M161.442 115.295l-.996 12.019h-22.629v76.426h-30.589v-76.426H91.812V96.727h15.253v-13.76c0-12.6 5.885-31.996 32.161-31.996h23.624v26.195h-17.157c-2.821 0-6.717 1.408-6.717 7.294v12.267h24.289l-1.823 18.568zM240.915.635H14.478C7.021.635.976 6.68.976 14.138v226.436c0 7.457 6.045 13.502 13.502 13.502h226.437c7.457 0 13.502-6.045 13.502-13.502V14.138c0-7.458-6.045-13.503-13.502-13.503z"/>
    </g>
</svg>
